<svg width="112" height="40" viewBox="0 0 112 40" fill="none" xmlns="http://www.w3.org/2000/svg">
<path d="M0 20C0 8.95431 8.95431 0 20 0H92C103.046 0 112 8.95431 112 20C112 31.0457 103.046 40 92 40H20C8.9543 40 0 31.0457 0 20Z" fill="black"/>
<path d="M26.769 21.568V23.973H28.589V21.568H30.838V19.865H28.589V17.473H26.769V19.865H24.52V21.568H26.769ZM34.0188 15.705V25H36.2678V20.671C36.2678 20.515 36.2548 20.138 36.2548 19.787C36.2418 19.592 36.2418 19.371 36.2418 19.15H36.2678C36.3588 19.345 36.4498 19.514 36.5408 19.683C36.6838 19.982 36.8398 20.281 36.9308 20.398L39.6608 25H41.9748V15.705H39.7258V20.112C39.7258 20.281 39.7258 20.632 39.7388 20.957C39.7388 21.152 39.7388 21.347 39.7518 21.555H39.7258C39.6348 21.386 39.5568 21.217 39.4658 21.061C39.3228 20.801 39.1538 20.515 39.0888 20.372L36.3328 15.705H34.0188ZM42.8193 21.659C42.8193 23.687 44.1713 25.195 46.3683 25.195C47.2133 25.195 47.8893 24.987 48.4483 24.584C49.0333 24.181 49.4233 23.622 49.5663 23.011H47.4993C47.3043 23.427 46.9533 23.674 46.3943 23.674C45.5103 23.674 45.0423 23.115 44.8993 22.218H49.6833C49.6833 20.853 49.3063 19.709 48.5133 18.981C47.9413 18.461 47.1873 18.149 46.2383 18.149C44.2103 18.149 42.8193 19.67 42.8193 21.659ZM46.2773 19.657C46.9663 19.657 47.4473 20.164 47.5383 20.957H44.9123C45.0553 20.164 45.4583 19.657 46.2773 19.657ZM49.6693 18.344L51.7103 25H53.6733L54.4663 21.984C54.5313 21.724 54.6223 21.438 54.6743 21.191C54.7133 21.048 54.7393 20.918 54.7653 20.788H54.7913C54.8173 20.918 54.8433 21.048 54.8823 21.191C54.9343 21.438 54.9863 21.724 55.0773 21.984L55.8573 25H57.8463L59.8873 18.344H57.7943L57.0533 21.1C56.9623 21.373 56.9103 21.685 56.8453 21.945L56.7413 22.4H56.7153L56.6113 21.945L56.4033 21.061L55.6753 18.344H53.8813L53.1793 21.061C53.0883 21.36 53.0233 21.672 52.9713 21.932L52.8803 22.387H52.8543C52.8283 22.244 52.8023 22.101 52.7633 21.945C52.7113 21.685 52.6203 21.373 52.5553 21.1L51.8273 18.344H49.6693ZM62.2465 25.156C62.4545 26.56 63.6635 27.301 65.4965 27.301C66.4845 27.301 67.3555 27.08 67.9405 26.56C68.4735 26.079 68.8245 25.351 68.8245 24.35V18.344H66.7965V19.059H66.7705C66.3675 18.5 65.7825 18.149 64.8985 18.149C63.2345 18.149 62.1035 19.54 62.1035 21.477C62.1035 23.518 63.4945 24.636 64.9895 24.636C65.8085 24.636 66.2895 24.324 66.6925 23.869H66.7445V24.532C66.7445 25.351 66.3675 25.806 65.4705 25.806C64.7555 25.806 64.4175 25.507 64.3005 25.156H62.2465ZM66.8355 21.399C66.8355 22.335 66.4065 23.063 65.4835 23.063C64.6905 23.063 64.1705 22.413 64.1705 21.412C64.1705 20.385 64.6905 19.748 65.4835 19.748C66.3675 19.748 66.8355 20.502 66.8355 21.399ZM74.509 21.685C74.509 22.894 74.028 23.7 73.092 23.7C72.156 23.7 71.688 22.894 71.688 21.685C71.688 20.476 72.156 19.657 73.092 19.657C74.028 19.657 74.509 20.476 74.509 21.685ZM69.543 21.685C69.543 23.7 70.96 25.208 73.105 25.208C75.25 25.208 76.654 23.7 76.654 21.685C76.654 19.67 75.25 18.162 73.105 18.162C70.96 18.162 69.543 19.67 69.543 21.685ZM77.0583 23.141C77.0583 24.454 78.0073 25.169 79.3333 25.169C80.3343 25.169 80.9063 24.818 81.3093 24.259H81.3353C81.3873 24.61 81.4523 24.857 81.5563 25H83.6103V24.909C83.4153 24.792 83.3763 24.493 83.3763 23.96V20.606C83.3763 19.774 83.1033 19.124 82.5313 18.708C82.0503 18.344 81.3743 18.162 80.3733 18.162C78.3713 18.162 77.3963 19.202 77.3573 20.45H79.3073C79.3723 19.891 79.7103 19.592 80.3863 19.592C81.0233 19.592 81.2963 19.878 81.2963 20.307C81.2963 20.762 80.8543 20.892 79.6063 21.048C78.2153 21.217 77.0583 21.685 77.0583 23.141ZM81.3483 22.621C81.3483 23.349 80.8023 23.817 80.0093 23.817C79.4893 23.817 79.0993 23.609 79.0993 23.076C79.0993 22.569 79.4373 22.374 80.2563 22.179C80.6853 22.075 81.0753 21.971 81.3483 21.828V22.621ZM84.4165 15.705V25H86.5615V15.705H84.4165Z" fill="white"/>
</svg>
