<svg width="28" height="28" viewBox="0 0 28 28" fill="none" xmlns="http://www.w3.org/2000/svg">
<path d="M23.24 9.1489C22.54 8.4489 21.7 8.1689 20.86 8.1689C19.32 8.1689 17.92 9.2889 17.64 10.6889C17.22 9.2889 15.96 8.3089 14.42 8.1689H14.98C14.98 7.1889 15.82 6.3489 16.8 6.3489V4.6689C15.96 4.6689 14.98 5.0889 14.42 5.6489C14.28 5.9289 14.14 6.0689 14.14 6.2089C13.72 4.6689 12.74 3.2689 11.48 2.4289C9.94001 1.4489 7.98001 1.1689 6.16001 1.5889L5.46001 1.8689L5.60001 2.5689C5.74001 4.3889 6.72001 6.0689 8.26001 7.1889C9.52001 8.0289 10.92 8.4489 12.46 8.4489C12.74 8.4489 13.16 8.4489 13.44 8.4489C12.18 8.5889 11.2 9.5689 10.92 10.6889C10.64 9.2889 9.24001 8.1689 7.70001 8.1689C5.74001 8.1689 4.20001 9.7089 4.20001 11.6689C4.20001 13.4889 5.74001 15.0289 7.56001 15.0289C7.98001 15.0289 8.26001 14.8889 8.68001 14.8889C7.28001 16.1489 7.14001 18.2489 8.26001 19.6489C8.96001 20.3489 9.94001 20.7689 10.92 20.7689C11.34 20.7689 11.62 20.6289 12.04 20.6289C10.64 21.8889 10.5 23.9889 11.62 25.3889C12.32 26.0889 13.16 26.6489 14.28 26.6489C16.1 26.6489 17.64 25.1089 17.64 23.1489C17.64 22.1689 17.22 21.1889 16.38 20.4889C16.8 20.7689 17.22 20.7689 17.5 20.7689C19.32 20.7689 20.86 19.2289 20.86 17.2689C20.86 16.4289 20.44 15.4489 19.88 14.8889C19.74 14.7489 19.74 14.7489 19.6 14.7489C20.02 14.8889 20.3 14.8889 20.72 14.8889C22.54 14.8889 24.08 13.3489 24.08 11.3889C24.22 10.5489 23.94 9.7089 23.24 9.1489ZM9.24001 5.7889C8.26001 5.2289 7.56001 4.1089 7.42001 3.1289C8.54001 2.9889 9.66001 3.1289 10.64 3.6889C11.62 4.5289 12.32 5.5089 12.6 6.7689C11.34 6.7689 10.22 6.4889 9.24001 5.7889ZM14.28 9.7089C15.26 9.7089 16.1 10.5489 16.1 11.5289C16.1 12.5089 15.26 13.3489 14.28 13.3489C13.3 13.3489 12.46 12.5089 12.46 11.5289C12.46 10.5489 13.3 9.7089 14.28 9.7089ZM14.28 16.5689C14 15.8689 13.72 15.1689 13.16 14.7489C13.44 14.8889 13.86 15.0289 14.28 15.0289C14.7 15.0289 14.98 14.8889 15.4 14.8889C15.4 14.8889 15.26 15.0289 15.12 15.0289C14.7 15.4489 14.42 15.8689 14.28 16.5689ZM7.70001 13.3489C6.72001 13.3489 5.88001 12.5089 5.88001 11.5289C5.88001 10.5489 6.72001 9.7089 7.70001 9.7089C8.68001 9.7089 9.52001 10.5489 9.52001 11.5289C9.52001 12.6489 8.68001 13.3489 7.70001 13.3489ZM10.92 12.5089C11.2 13.2089 11.62 13.7689 12.18 14.1889C11.76 14.0489 11.34 14.0489 10.92 14.0489C10.5 14.0489 10.22 14.1889 9.80001 14.1889C10.36 13.7689 10.78 13.0689 10.92 12.5089ZM10.92 19.2289C9.94001 19.2289 9.10001 18.3889 9.10001 17.4089C9.10001 16.4289 9.94001 15.5889 10.92 15.5889C11.9 15.5889 12.74 16.4289 12.74 17.4089C12.74 18.3889 11.9 19.2289 10.92 19.2289ZM14.28 24.9689C13.3 24.9689 12.46 24.2689 12.46 23.1489C12.46 22.1689 13.3 21.3289 14.28 21.3289C15.26 21.3289 16.1 22.1689 16.1 23.1489C16.1 24.2689 15.26 24.9689 14.28 24.9689ZM14.28 19.7889C13.86 19.7889 13.58 19.9289 13.16 19.9289C13.72 19.5089 14 18.8089 14.28 18.2489C14.42 18.9489 14.84 19.5089 15.4 19.9289C14.98 19.9289 14.7 19.7889 14.28 19.7889ZM17.5 19.2289C16.52 19.2289 15.68 18.3889 15.68 17.4089C15.68 16.4289 16.52 15.5889 17.5 15.5889C18.48 15.5889 19.32 16.4289 19.32 17.4089C19.32 18.3889 18.48 19.2289 17.5 19.2289ZM17.5 13.9089C17.08 13.9089 16.8 13.9089 16.38 14.0489C16.94 13.6289 17.36 13.0689 17.5 12.3689C17.64 12.9289 17.92 13.4889 18.34 13.9089C18.48 14.0489 18.48 14.0489 18.62 14.0489C18.34 14.0489 17.92 13.9089 17.5 13.9089ZM20.86 13.3489C19.88 13.3489 19.04 12.5089 19.04 11.5289C19.04 10.5489 19.88 9.7089 20.86 9.7089C21.84 9.7089 22.68 10.5489 22.68 11.5289C22.68 12.5089 21.84 13.3489 20.86 13.3489Z" fill="#747676"/>
</svg>
