<?xml version="1.0" encoding="utf-8"?>
<!-- Generator: Adobe Illustrator 22.1.0, SVG Export Plug-In . SVG Version: 6.00 Build 0)  -->
<svg version="1.1" id="Ebene_1" xmlns="http://www.w3.org/2000/svg" xmlns:xlink="http://www.w3.org/1999/xlink" x="0px" y="0px"
	 viewBox="0 0 18 18" style="enable-background:new 0 0 18 18;" xml:space="preserve">
<g>
	<path d="M6,0.7c0.5,0.7,0.8,1.5,0.8,2.4v3.7c-0.1,0-0.2-0.1-0.3-0.1c-0.4,0-0.7,0.2-0.9,0.5L4.3,8.9L1.3,8.2l0,0.7
		c0,1.2-0.1,2.6-0.1,2.9L1,12.4l5.5,1.2l0.1,0c0.1,0,0.2,0,0.4-0.1V18H8V3.1C8,2,7.6,0.9,6.9,0L6,0.7z M6.5,12.5l-4.1-0.9
		c0-0.4,0-1,0.1-1.9l2.3,0.5l1.8-2.3L6.5,12.5z"/>
	<path d="M16.8,11.9c0-0.3-0.1-1.7-0.1-2.9l0-0.7l-3,0.7l-1.4-1.7c-0.2-0.3-0.6-0.6-0.9-0.6c-0.1,0-0.2,0-0.3,0.1V3.1
		c0-0.9,0.3-1.7,0.8-2.4L11.1,0C10.4,0.9,10,2,10,3.1V18h1.1v-4.5c0.1,0,0.2,0.1,0.4,0.1l0.1,0l5.5-1.2L16.8,11.9z M11.5,12.5l0-4.5
		l1.8,2.3l2.3-0.5c0,1,0,1.6,0.1,1.9L11.5,12.5z"/>
</g>
</svg>
